Info: Starting: Create HDL design files for synthesis
Info: qsys-generate C:\Users\kamil\Desktop\RAINBOW\DE2_115_WEB_SERVER_RGMII_ENET0\de2_115_WEB_Qsys.qsys --synthesis=VERILOG --output-directory=C:\Users\kamil\Desktop\RAINBOW\DE2_115_WEB_SERVER_RGMII_ENET0\de2_115_WEB_Qsys\synthesis --family="Cyclone IV E" --part=EP4CE115F29C7
Progress: Loading DE2_115_WEB_SERVER_RGMII_ENET0/de2_115_WEB_Qsys.qsys
Progress: Reading input file
Progress: Adding ISP1362_IF_0 [ISP1362_IF 1.0]
Progress: Parameterizing module ISP1362_IF_0
Progress: Adding altpll [altpll 15.1]
Progress: Parameterizing module altpll
Progress: Adding audio [AUDIO_IF 1.0]
Progress: Parameterizing module audio
Progress: Adding c0 [altera_clock_bridge 15.1]
Progress: Parameterizing module c0
Progress: Adding c2 [altera_clock_bridge 15.1]
Progress: Parameterizing module c2
Progress: Adding cfi_flash [altera_generic_tristate_controller 15.1]
Progress: Parameterizing module cfi_flash
Progress: Adding clk_50 [clock_source 15.1]
Progress: Parameterizing module clk_50
Progress: Adding clock_crossing_io [altera_avalon_mm_clock_crossing_bridge 15.1]
Progress: Parameterizing module clock_crossing_io
Progress: Adding cpu [altera_nios2_gen2 15.1]
Progress: Parameterizing module cpu
Progress: Adding descriptor_memory [altera_avalon_onchip_memory2 15.1]
Progress: Parameterizing module descriptor_memory
Progress: Adding epp_i2c_scl [altera_avalon_pio 15.1]
Progress: Parameterizing module epp_i2c_scl
Progress: Adding epp_i2c_sda [altera_avalon_pio 15.1]
Progress: Parameterizing module epp_i2c_sda
Progress: Adding i2c_scl [altera_avalon_pio 15.1]
Progress: Parameterizing module i2c_scl
Progress: Adding i2c_sda [altera_avalon_pio 15.1]
Progress: Parameterizing module i2c_sda
Progress: Adding ir [altera_avalon_pio 15.1]
Progress: Parameterizing module ir
Progress: Adding jtag_uart [altera_avalon_jtag_uart 15.1]
Progress: Parameterizing module jtag_uart
Progress: Adding key [altera_avalon_pio 15.1]
Progress: Parameterizing module key
Progress: Adding lcd [altera_avalon_lcd_16207 15.1]
Progress: Parameterizing module lcd
Progress: Adding ledg [altera_avalon_pio 15.1]
Progress: Parameterizing module ledg
Progress: Adding ledr [altera_avalon_pio 15.1]
Progress: Parameterizing module ledr
Progress: Adding onchip_memory2 [altera_avalon_onchip_memory2 15.1]
Progress: Parameterizing module onchip_memory2
Progress: Adding rs232 [altera_avalon_uart 15.1]
Progress: Parameterizing module rs232
Progress: Adding sd_clk [altera_avalon_pio 15.1]
Progress: Parameterizing module sd_clk
Progress: Adding sd_cmd [altera_avalon_pio 15.1]
Progress: Parameterizing module sd_cmd
Progress: Adding sd_dat [altera_avalon_pio 15.1]
Progress: Parameterizing module sd_dat
Progress: Adding sd_wp_n [altera_avalon_pio 15.1]
Progress: Parameterizing module sd_wp_n
Progress: Adding sdram [altera_avalon_new_sdram_controller 15.1]
Progress: Parameterizing module sdram
Progress: Adding seg7 [SEG7_IF 1.0]
Progress: Parameterizing module seg7
Progress: Adding sgdma_rx [altera_avalon_sgdma 15.1]
Progress: Parameterizing module sgdma_rx
Progress: Adding sgdma_tx [altera_avalon_sgdma 15.1]
Progress: Parameterizing module sgdma_tx
Progress: Adding sha1 [sha1 1.0]
Progress: Parameterizing module sha1
Progress: Adding sha_reduction [sha_reduction 1.0]
Progress: Parameterizing module sha_reduction
Progress: Adding sma_in [altera_avalon_pio 15.1]
Progress: Parameterizing module sma_in
Progress: Adding sma_out [altera_avalon_pio 15.1]
Progress: Parameterizing module sma_out
Progress: Adding sram [TERASIC_SRAM 1.0]
Progress: Parameterizing module sram
Progress: Adding sw [altera_avalon_pio 15.1]
Progress: Parameterizing module sw
Progress: Adding sysid [altera_avalon_sysid_qsys 15.1]
Progress: Parameterizing module sysid
Progress: Adding timer [altera_avalon_timer 15.1]
Progress: Parameterizing module timer
Progress: Adding tri_state_bridge_flash_bridge_0 [altera_tristate_conduit_bridge 15.1]
Progress: Parameterizing module tri_state_bridge_flash_bridge_0
Progress: Adding tri_state_flash_bridge_pinSharer_0 [altera_tristate_conduit_pin_sharer 15.1]
Progress: Parameterizing module tri_state_flash_bridge_pinSharer_0
Progress: Adding tse_mac [altera_eth_tse 15.1]
Progress: Parameterizing module tse_mac
Progress: Building connections
Progress: Parameterizing connections
Progress: Validating
Progress: Done reading input file
Warning: de2_115_WEB_Qsys.cfi_flash: Properties (isFlash,isMemoryDevice,isNonVolatileStorage) have been set on interface uas - in composed mode these are ignored
Info: de2_115_WEB_Qsys.epp_i2c_sda: PIO inputs are not hardwired in test bench. Undefined values will be read from PIO inputs during simulation.
Info: de2_115_WEB_Qsys.i2c_sda: PIO inputs are not hardwired in test bench. Undefined values will be read from PIO inputs during simulation.
Info: de2_115_WEB_Qsys.ir: PIO inputs are not hardwired in test bench. Undefined values will be read from PIO inputs during simulation.
Info: de2_115_WEB_Qsys.key: PIO inputs are not hardwired in test bench. Undefined values will be read from PIO inputs during simulation.
Info: de2_115_WEB_Qsys.sd_cmd: PIO inputs are not hardwired in test bench. Undefined values will be read from PIO inputs during simulation.
Info: de2_115_WEB_Qsys.sd_dat: PIO inputs are not hardwired in test bench. Undefined values will be read from PIO inputs during simulation.
Info: de2_115_WEB_Qsys.sd_wp_n: PIO inputs are not hardwired in test bench. Undefined values will be read from PIO inputs during simulation.
Info: de2_115_WEB_Qsys.sma_in: PIO inputs are not hardwired in test bench. Undefined values will be read from PIO inputs during simulation.
Info: de2_115_WEB_Qsys.sw: PIO inputs are not hardwired in test bench. Undefined values will be read from PIO inputs during simulation.
Info: de2_115_WEB_Qsys.sysid: System ID is not assigned automatically. Edit the System ID parameter to provide a unique ID
Info: de2_115_WEB_Qsys.sysid: Time stamp will be automatically updated when this component is generated.
Info: de2_115_WEB_Qsys.tse_mac.receive/sgdma_rx.in: Ready latency is 2 for source and 0 for sink. Avalon-ST Adapter will be inserted..
Warning: de2_115_WEB_Qsys.tse_mac: tse_mac.mac_misc_connection must be exported, or connected to a matching conduit.
Info: de2_115_WEB_Qsys: Generating de2_115_WEB_Qsys "de2_115_WEB_Qsys" for QUARTUS_SYNTH
Info: Inserting clock-crossing logic between cmd_demux.src9 and cmd_mux_009.sink0
Info: Inserting clock-crossing logic between rsp_demux_009.src0 and rsp_mux.sink9
Info: avalon_st_adapter: Inserting timing_adapter: timing_adapter_0
Warning: de2_115_WEB_Qsys: "No matching role found for cpu_custom_instruction_master_translator:ci_slave:ci_slave_result (result)"
Warning: de2_115_WEB_Qsys: "No matching role found for cpu_custom_instruction_master_multi_xconnect:ci_slave:ci_slave_ipending (ipending)"
Warning: de2_115_WEB_Qsys: "No matching role found for cpu_custom_instruction_master_multi_xconnect:ci_slave:ci_slave_estatus (estatus)"
Warning: de2_115_WEB_Qsys: "No matching role found for rs232:s1:dataavailable (dataavailable)"
Warning: de2_115_WEB_Qsys: "No matching role found for rs232:s1:readyfordata (readyfordata)"
Info: ISP1362_IF_0: "de2_115_WEB_Qsys" instantiated ISP1362_IF "ISP1362_IF_0"
Info: altpll: "de2_115_WEB_Qsys" instantiated altpll "altpll"
Info: audio: "de2_115_WEB_Qsys" instantiated AUDIO_IF "audio"
Info: cfi_flash: "de2_115_WEB_Qsys" instantiated altera_generic_tristate_controller "cfi_flash"
Info: clock_crossing_io: "de2_115_WEB_Qsys" instantiated altera_avalon_mm_clock_crossing_bridge "clock_crossing_io"
Info: cpu: "de2_115_WEB_Qsys" instantiated altera_nios2_gen2 "cpu"
Info: descriptor_memory: Starting RTL generation for module 'de2_115_WEB_Qsys_descriptor_memory'
Info: descriptor_memory:   Generation command is [exec C:/altera_lite/15.1/quartus/bin64/perl/bin/perl.exe -I C:/altera_lite/15.1/quartus/bin64/perl/lib -I C:/altera_lite/15.1/quartus/sopc_builder/bin/europa -I C:/altera_lite/15.1/quartus/sopc_builder/bin/perl_lib -I C:/altera_lite/15.1/quartus/sopc_builder/bin -I C:/altera_lite/15.1/quartus/../ip/altera/sopc_builder_ip/common -I C:/altera_lite/15.1/quartus/../ip/altera/sopc_builder_ip/altera_avalon_onchip_memory2 -- C:/altera_lite/15.1/quartus/../ip/altera/sopc_builder_ip/altera_avalon_onchip_memory2/generate_rtl.pl --name=de2_115_WEB_Qsys_descriptor_memory --dir=C:/Users/kamil/AppData/Local/Temp/alt6956_9213786085723018171.dir/0016_descriptor_memory_gen/ --quartus_dir=C:/altera_lite/15.1/quartus --verilog --config=C:/Users/kamil/AppData/Local/Temp/alt6956_9213786085723018171.dir/0016_descriptor_memory_gen//de2_115_WEB_Qsys_descriptor_memory_component_configuration.pl  --do_build_sim=0  ]
Info: descriptor_memory: Done RTL generation for module 'de2_115_WEB_Qsys_descriptor_memory'
Info: descriptor_memory: "de2_115_WEB_Qsys" instantiated altera_avalon_onchip_memory2 "descriptor_memory"
Info: epp_i2c_scl: Starting RTL generation for module 'de2_115_WEB_Qsys_epp_i2c_scl'
Info: epp_i2c_scl:   Generation command is [exec C:/altera_lite/15.1/quartus/bin64/perl/bin/perl.exe -I C:/altera_lite/15.1/quartus/bin64/perl/lib -I C:/altera_lite/15.1/quartus/sopc_builder/bin/europa -I C:/altera_lite/15.1/quartus/sopc_builder/bin/perl_lib -I C:/altera_lite/15.1/quartus/sopc_builder/bin -I C:/altera_lite/15.1/quartus/../ip/altera/sopc_builder_ip/common -I C:/altera_lite/15.1/quartus/../ip/altera/sopc_builder_ip/altera_avalon_pio -- C:/altera_lite/15.1/quartus/../ip/altera/sopc_builder_ip/altera_avalon_pio/generate_rtl.pl --name=de2_115_WEB_Qsys_epp_i2c_scl --dir=C:/Users/kamil/AppData/Local/Temp/alt6956_9213786085723018171.dir/0017_epp_i2c_scl_gen/ --quartus_dir=C:/altera_lite/15.1/quartus --verilog --config=C:/Users/kamil/AppData/Local/Temp/alt6956_9213786085723018171.dir/0017_epp_i2c_scl_gen//de2_115_WEB_Qsys_epp_i2c_scl_component_configuration.pl  --do_build_sim=0  ]
Info: epp_i2c_scl: Done RTL generation for module 'de2_115_WEB_Qsys_epp_i2c_scl'
Info: epp_i2c_scl: "de2_115_WEB_Qsys" instantiated altera_avalon_pio "epp_i2c_scl"
Info: epp_i2c_sda: Starting RTL generation for module 'de2_115_WEB_Qsys_epp_i2c_sda'
Info: epp_i2c_sda:   Generation command is [exec C:/altera_lite/15.1/quartus/bin64/perl/bin/perl.exe -I C:/altera_lite/15.1/quartus/bin64/perl/lib -I C:/altera_lite/15.1/quartus/sopc_builder/bin/europa -I C:/altera_lite/15.1/quartus/sopc_builder/bin/perl_lib -I C:/altera_lite/15.1/quartus/sopc_builder/bin -I C:/altera_lite/15.1/quartus/../ip/altera/sopc_builder_ip/common -I C:/altera_lite/15.1/quartus/../ip/altera/sopc_builder_ip/altera_avalon_pio -- C:/altera_lite/15.1/quartus/../ip/altera/sopc_builder_ip/altera_avalon_pio/generate_rtl.pl --name=de2_115_WEB_Qsys_epp_i2c_sda --dir=C:/Users/kamil/AppData/Local/Temp/alt6956_9213786085723018171.dir/0018_epp_i2c_sda_gen/ --quartus_dir=C:/altera_lite/15.1/quartus --verilog --config=C:/Users/kamil/AppData/Local/Temp/alt6956_9213786085723018171.dir/0018_epp_i2c_sda_gen//de2_115_WEB_Qsys_epp_i2c_sda_component_configuration.pl  --do_build_sim=0  ]
Info: epp_i2c_sda: Done RTL generation for module 'de2_115_WEB_Qsys_epp_i2c_sda'
Info: epp_i2c_sda: "de2_115_WEB_Qsys" instantiated altera_avalon_pio "epp_i2c_sda"
Info: ir: Starting RTL generation for module 'de2_115_WEB_Qsys_ir'
Info: ir:   Generation command is [exec C:/altera_lite/15.1/quartus/bin64/perl/bin/perl.exe -I C:/altera_lite/15.1/quartus/bin64/perl/lib -I C:/altera_lite/15.1/quartus/sopc_builder/bin/europa -I C:/altera_lite/15.1/quartus/sopc_builder/bin/perl_lib -I C:/altera_lite/15.1/quartus/sopc_builder/bin -I C:/altera_lite/15.1/quartus/../ip/altera/sopc_builder_ip/common -I C:/altera_lite/15.1/quartus/../ip/altera/sopc_builder_ip/altera_avalon_pio -- C:/altera_lite/15.1/quartus/../ip/altera/sopc_builder_ip/altera_avalon_pio/generate_rtl.pl --name=de2_115_WEB_Qsys_ir --dir=C:/Users/kamil/AppData/Local/Temp/alt6956_9213786085723018171.dir/0019_ir_gen/ --quartus_dir=C:/altera_lite/15.1/quartus --verilog --config=C:/Users/kamil/AppData/Local/Temp/alt6956_9213786085723018171.dir/0019_ir_gen//de2_115_WEB_Qsys_ir_component_configuration.pl  --do_build_sim=0  ]
Info: ir: Done RTL generation for module 'de2_115_WEB_Qsys_ir'
Info: ir: "de2_115_WEB_Qsys" instantiated altera_avalon_pio "ir"
Info: jtag_uart: Starting RTL generation for module 'de2_115_WEB_Qsys_jtag_uart'
Info: jtag_uart:   Generation command is [exec C:/altera_lite/15.1/quartus/bin64/perl/bin/perl.exe -I C:/altera_lite/15.1/quartus/bin64/perl/lib -I C:/altera_lite/15.1/quartus/sopc_builder/bin/europa -I C:/altera_lite/15.1/quartus/sopc_builder/bin/perl_lib -I C:/altera_lite/15.1/quartus/sopc_builder/bin -I C:/altera_lite/15.1/quartus/../ip/altera/sopc_builder_ip/common -I C:/altera_lite/15.1/quartus/../ip/altera/sopc_builder_ip/altera_avalon_jtag_uart -- C:/altera_lite/15.1/quartus/../ip/altera/sopc_builder_ip/altera_avalon_jtag_uart/generate_rtl.pl --name=de2_115_WEB_Qsys_jtag_uart --dir=C:/Users/kamil/AppData/Local/Temp/alt6956_9213786085723018171.dir/0020_jtag_uart_gen/ --quartus_dir=C:/altera_lite/15.1/quartus --verilog --config=C:/Users/kamil/AppData/Local/Temp/alt6956_9213786085723018171.dir/0020_jtag_uart_gen//de2_115_WEB_Qsys_jtag_uart_component_configuration.pl  --do_build_sim=0  ]
Info: jtag_uart: Done RTL generation for module 'de2_115_WEB_Qsys_jtag_uart'
Info: jtag_uart: "de2_115_WEB_Qsys" instantiated altera_avalon_jtag_uart "jtag_uart"
Info: key: Starting RTL generation for module 'de2_115_WEB_Qsys_key'
Info: key:   Generation command is [exec C:/altera_lite/15.1/quartus/bin64/perl/bin/perl.exe -I C:/altera_lite/15.1/quartus/bin64/perl/lib -I C:/altera_lite/15.1/quartus/sopc_builder/bin/europa -I C:/altera_lite/15.1/quartus/sopc_builder/bin/perl_lib -I C:/altera_lite/15.1/quartus/sopc_builder/bin -I C:/altera_lite/15.1/quartus/../ip/altera/sopc_builder_ip/common -I C:/altera_lite/15.1/quartus/../ip/altera/sopc_builder_ip/altera_avalon_pio -- C:/altera_lite/15.1/quartus/../ip/altera/sopc_builder_ip/altera_avalon_pio/generate_rtl.pl --name=de2_115_WEB_Qsys_key --dir=C:/Users/kamil/AppData/Local/Temp/alt6956_9213786085723018171.dir/0021_key_gen/ --quartus_dir=C:/altera_lite/15.1/quartus --verilog --config=C:/Users/kamil/AppData/Local/Temp/alt6956_9213786085723018171.dir/0021_key_gen//de2_115_WEB_Qsys_key_component_configuration.pl  --do_build_sim=0  ]
Info: key: Done RTL generation for module 'de2_115_WEB_Qsys_key'
Info: key: "de2_115_WEB_Qsys" instantiated altera_avalon_pio "key"
Info: lcd: Starting RTL generation for module 'de2_115_WEB_Qsys_lcd'
Info: lcd:   Generation command is [exec C:/altera_lite/15.1/quartus/bin64/perl/bin/perl.exe -I C:/altera_lite/15.1/quartus/bin64/perl/lib -I C:/altera_lite/15.1/quartus/sopc_builder/bin/europa -I C:/altera_lite/15.1/quartus/sopc_builder/bin/perl_lib -I C:/altera_lite/15.1/quartus/sopc_builder/bin -I C:/altera_lite/15.1/quartus/../ip/altera/sopc_builder_ip/common -I C:/altera_lite/15.1/quartus/../ip/altera/sopc_builder_ip/altera_avalon_lcd_16207 -- C:/altera_lite/15.1/quartus/../ip/altera/sopc_builder_ip/altera_avalon_lcd_16207/generate_rtl.pl --name=de2_115_WEB_Qsys_lcd --dir=C:/Users/kamil/AppData/Local/Temp/alt6956_9213786085723018171.dir/0022_lcd_gen/ --quartus_dir=C:/altera_lite/15.1/quartus --verilog --config=C:/Users/kamil/AppData/Local/Temp/alt6956_9213786085723018171.dir/0022_lcd_gen//de2_115_WEB_Qsys_lcd_component_configuration.pl  --do_build_sim=0  ]
Info: lcd: Done RTL generation for module 'de2_115_WEB_Qsys_lcd'
Info: lcd: "de2_115_WEB_Qsys" instantiated altera_avalon_lcd_16207 "lcd"
Info: ledg: Starting RTL generation for module 'de2_115_WEB_Qsys_ledg'
Info: ledg:   Generation command is [exec C:/altera_lite/15.1/quartus/bin64/perl/bin/perl.exe -I C:/altera_lite/15.1/quartus/bin64/perl/lib -I C:/altera_lite/15.1/quartus/sopc_builder/bin/europa -I C:/altera_lite/15.1/quartus/sopc_builder/bin/perl_lib -I C:/altera_lite/15.1/quartus/sopc_builder/bin -I C:/altera_lite/15.1/quartus/../ip/altera/sopc_builder_ip/common -I C:/altera_lite/15.1/quartus/../ip/altera/sopc_builder_ip/altera_avalon_pio -- C:/altera_lite/15.1/quartus/../ip/altera/sopc_builder_ip/altera_avalon_pio/generate_rtl.pl --name=de2_115_WEB_Qsys_ledg --dir=C:/Users/kamil/AppData/Local/Temp/alt6956_9213786085723018171.dir/0023_ledg_gen/ --quartus_dir=C:/altera_lite/15.1/quartus --verilog --config=C:/Users/kamil/AppData/Local/Temp/alt6956_9213786085723018171.dir/0023_ledg_gen//de2_115_WEB_Qsys_ledg_component_configuration.pl  --do_build_sim=0  ]
Info: ledg: Done RTL generation for module 'de2_115_WEB_Qsys_ledg'
Info: ledg: "de2_115_WEB_Qsys" instantiated altera_avalon_pio "ledg"
Info: ledr: Starting RTL generation for module 'de2_115_WEB_Qsys_ledr'
Info: ledr:   Generation command is [exec C:/altera_lite/15.1/quartus/bin64/perl/bin/perl.exe -I C:/altera_lite/15.1/quartus/bin64/perl/lib -I C:/altera_lite/15.1/quartus/sopc_builder/bin/europa -I C:/altera_lite/15.1/quartus/sopc_builder/bin/perl_lib -I C:/altera_lite/15.1/quartus/sopc_builder/bin -I C:/altera_lite/15.1/quartus/../ip/altera/sopc_builder_ip/common -I C:/altera_lite/15.1/quartus/../ip/altera/sopc_builder_ip/altera_avalon_pio -- C:/altera_lite/15.1/quartus/../ip/altera/sopc_builder_ip/altera_avalon_pio/generate_rtl.pl --name=de2_115_WEB_Qsys_ledr --dir=C:/Users/kamil/AppData/Local/Temp/alt6956_9213786085723018171.dir/0024_ledr_gen/ --quartus_dir=C:/altera_lite/15.1/quartus --verilog --config=C:/Users/kamil/AppData/Local/Temp/alt6956_9213786085723018171.dir/0024_ledr_gen//de2_115_WEB_Qsys_ledr_component_configuration.pl  --do_build_sim=0  ]
Info: ledr: Done RTL generation for module 'de2_115_WEB_Qsys_ledr'
Info: ledr: "de2_115_WEB_Qsys" instantiated altera_avalon_pio "ledr"
Info: onchip_memory2: Starting RTL generation for module 'de2_115_WEB_Qsys_onchip_memory2'
Info: onchip_memory2:   Generation command is [exec C:/altera_lite/15.1/quartus/bin64/perl/bin/perl.exe -I C:/altera_lite/15.1/quartus/bin64/perl/lib -I C:/altera_lite/15.1/quartus/sopc_builder/bin/europa -I C:/altera_lite/15.1/quartus/sopc_builder/bin/perl_lib -I C:/altera_lite/15.1/quartus/sopc_builder/bin -I C:/altera_lite/15.1/quartus/../ip/altera/sopc_builder_ip/common -I C:/altera_lite/15.1/quartus/../ip/altera/sopc_builder_ip/altera_avalon_onchip_memory2 -- C:/altera_lite/15.1/quartus/../ip/altera/sopc_builder_ip/altera_avalon_onchip_memory2/generate_rtl.pl --name=de2_115_WEB_Qsys_onchip_memory2 --dir=C:/Users/kamil/AppData/Local/Temp/alt6956_9213786085723018171.dir/0025_onchip_memory2_gen/ --quartus_dir=C:/altera_lite/15.1/quartus --verilog --config=C:/Users/kamil/AppData/Local/Temp/alt6956_9213786085723018171.dir/0025_onchip_memory2_gen//de2_115_WEB_Qsys_onchip_memory2_component_configuration.pl  --do_build_sim=0  ]
Info: onchip_memory2: Done RTL generation for module 'de2_115_WEB_Qsys_onchip_memory2'
Info: onchip_memory2: "de2_115_WEB_Qsys" instantiated altera_avalon_onchip_memory2 "onchip_memory2"
Info: rs232: Starting RTL generation for module 'de2_115_WEB_Qsys_rs232'
Info: rs232:   Generation command is [exec C:/altera_lite/15.1/quartus/bin64/perl/bin/perl.exe -I C:/altera_lite/15.1/quartus/bin64/perl/lib -I C:/altera_lite/15.1/quartus/sopc_builder/bin/europa -I C:/altera_lite/15.1/quartus/sopc_builder/bin/perl_lib -I C:/altera_lite/15.1/quartus/sopc_builder/bin -I C:/altera_lite/15.1/quartus/../ip/altera/sopc_builder_ip/common -I C:/altera_lite/15.1/quartus/../ip/altera/sopc_builder_ip/altera_avalon_uart -- C:/altera_lite/15.1/quartus/../ip/altera/sopc_builder_ip/altera_avalon_uart/generate_rtl.pl --name=de2_115_WEB_Qsys_rs232 --dir=C:/Users/kamil/AppData/Local/Temp/alt6956_9213786085723018171.dir/0026_rs232_gen/ --quartus_dir=C:/altera_lite/15.1/quartus --verilog --config=C:/Users/kamil/AppData/Local/Temp/alt6956_9213786085723018171.dir/0026_rs232_gen//de2_115_WEB_Qsys_rs232_component_configuration.pl  --do_build_sim=0  ]
Info: rs232: Done RTL generation for module 'de2_115_WEB_Qsys_rs232'
Info: rs232: "de2_115_WEB_Qsys" instantiated altera_avalon_uart "rs232"
Info: sd_dat: Starting RTL generation for module 'de2_115_WEB_Qsys_sd_dat'
Info: sd_dat:   Generation command is [exec C:/altera_lite/15.1/quartus/bin64/perl/bin/perl.exe -I C:/altera_lite/15.1/quartus/bin64/perl/lib -I C:/altera_lite/15.1/quartus/sopc_builder/bin/europa -I C:/altera_lite/15.1/quartus/sopc_builder/bin/perl_lib -I C:/altera_lite/15.1/quartus/sopc_builder/bin -I C:/altera_lite/15.1/quartus/../ip/altera/sopc_builder_ip/common -I C:/altera_lite/15.1/quartus/../ip/altera/sopc_builder_ip/altera_avalon_pio -- C:/altera_lite/15.1/quartus/../ip/altera/sopc_builder_ip/altera_avalon_pio/generate_rtl.pl --name=de2_115_WEB_Qsys_sd_dat --dir=C:/Users/kamil/AppData/Local/Temp/alt6956_9213786085723018171.dir/0027_sd_dat_gen/ --quartus_dir=C:/altera_lite/15.1/quartus --verilog --config=C:/Users/kamil/AppData/Local/Temp/alt6956_9213786085723018171.dir/0027_sd_dat_gen//de2_115_WEB_Qsys_sd_dat_component_configuration.pl  --do_build_sim=0  ]
Info: sd_dat: Done RTL generation for module 'de2_115_WEB_Qsys_sd_dat'
Info: sd_dat: "de2_115_WEB_Qsys" instantiated altera_avalon_pio "sd_dat"
Info: sdram: Starting RTL generation for module 'de2_115_WEB_Qsys_sdram'
Info: sdram:   Generation command is [exec C:/altera_lite/15.1/quartus/bin64/perl/bin/perl.exe -I C:/altera_lite/15.1/quartus/bin64/perl/lib -I C:/altera_lite/15.1/quartus/sopc_builder/bin/europa -I C:/altera_lite/15.1/quartus/sopc_builder/bin/perl_lib -I C:/altera_lite/15.1/quartus/sopc_builder/bin -I C:/altera_lite/15.1/quartus/../ip/altera/sopc_builder_ip/common -I C:/altera_lite/15.1/quartus/../ip/altera/sopc_builder_ip/altera_avalon_new_sdram_controller -- C:/altera_lite/15.1/quartus/../ip/altera/sopc_builder_ip/altera_avalon_new_sdram_controller/generate_rtl.pl --name=de2_115_WEB_Qsys_sdram --dir=C:/Users/kamil/AppData/Local/Temp/alt6956_9213786085723018171.dir/0028_sdram_gen/ --quartus_dir=C:/altera_lite/15.1/quartus --verilog --config=C:/Users/kamil/AppData/Local/Temp/alt6956_9213786085723018171.dir/0028_sdram_gen//de2_115_WEB_Qsys_sdram_component_configuration.pl  --do_build_sim=0  ]
Info: sdram: Done RTL generation for module 'de2_115_WEB_Qsys_sdram'
Info: sdram: "de2_115_WEB_Qsys" instantiated altera_avalon_new_sdram_controller "sdram"
Info: seg7: "de2_115_WEB_Qsys" instantiated SEG7_IF "seg7"
Info: sgdma_rx: Starting RTL generation for module 'de2_115_WEB_Qsys_sgdma_rx'
Info: sgdma_rx:   Generation command is [exec C:/altera_lite/15.1/quartus/bin64/perl/bin/perl.exe -I C:/altera_lite/15.1/quartus/bin64/perl/lib -I C:/altera_lite/15.1/quartus/sopc_builder/bin/europa -I C:/altera_lite/15.1/quartus/sopc_builder/bin/perl_lib -I C:/altera_lite/15.1/quartus/sopc_builder/bin -I C:/altera_lite/15.1/quartus/../ip/altera/sopc_builder_ip/common -I C:/altera_lite/15.1/quartus/../ip/altera/sopc_builder_ip/altera_avalon_sgdma -- C:/altera_lite/15.1/quartus/../ip/altera/sopc_builder_ip/altera_avalon_sgdma/generate_rtl.pl --name=de2_115_WEB_Qsys_sgdma_rx --dir=C:/Users/kamil/AppData/Local/Temp/alt6956_9213786085723018171.dir/0030_sgdma_rx_gen/ --quartus_dir=C:/altera_lite/15.1/quartus --verilog --config=C:/Users/kamil/AppData/Local/Temp/alt6956_9213786085723018171.dir/0030_sgdma_rx_gen//de2_115_WEB_Qsys_sgdma_rx_component_configuration.pl  --do_build_sim=0  ]
Info: sgdma_rx: Done RTL generation for module 'de2_115_WEB_Qsys_sgdma_rx'
Info: sgdma_rx: "de2_115_WEB_Qsys" instantiated altera_avalon_sgdma "sgdma_rx"
Info: sgdma_tx: Starting RTL generation for module 'de2_115_WEB_Qsys_sgdma_tx'
Info: sgdma_tx:   Generation command is [exec C:/altera_lite/15.1/quartus/bin64/perl/bin/perl.exe -I C:/altera_lite/15.1/quartus/bin64/perl/lib -I C:/altera_lite/15.1/quartus/sopc_builder/bin/europa -I C:/altera_lite/15.1/quartus/sopc_builder/bin/perl_lib -I C:/altera_lite/15.1/quartus/sopc_builder/bin -I C:/altera_lite/15.1/quartus/../ip/altera/sopc_builder_ip/common -I C:/altera_lite/15.1/quartus/../ip/altera/sopc_builder_ip/altera_avalon_sgdma -- C:/altera_lite/15.1/quartus/../ip/altera/sopc_builder_ip/altera_avalon_sgdma/generate_rtl.pl --name=de2_115_WEB_Qsys_sgdma_tx --dir=C:/Users/kamil/AppData/Local/Temp/alt6956_9213786085723018171.dir/0031_sgdma_tx_gen/ --quartus_dir=C:/altera_lite/15.1/quartus --verilog --config=C:/Users/kamil/AppData/Local/Temp/alt6956_9213786085723018171.dir/0031_sgdma_tx_gen//de2_115_WEB_Qsys_sgdma_tx_component_configuration.pl  --do_build_sim=0  ]
Info: sgdma_tx: Done RTL generation for module 'de2_115_WEB_Qsys_sgdma_tx'
Info: sgdma_tx: "de2_115_WEB_Qsys" instantiated altera_avalon_sgdma "sgdma_tx"
Info: sha_reduction: "de2_115_WEB_Qsys" instantiated sha_reduction "sha_reduction"
Info: sma_in: Starting RTL generation for module 'de2_115_WEB_Qsys_sma_in'
Info: sma_in:   Generation command is [exec C:/altera_lite/15.1/quartus/bin64/perl/bin/perl.exe -I C:/altera_lite/15.1/quartus/bin64/perl/lib -I C:/altera_lite/15.1/quartus/sopc_builder/bin/europa -I C:/altera_lite/15.1/quartus/sopc_builder/bin/perl_lib -I C:/altera_lite/15.1/quartus/sopc_builder/bin -I C:/altera_lite/15.1/quartus/../ip/altera/sopc_builder_ip/common -I C:/altera_lite/15.1/quartus/../ip/altera/sopc_builder_ip/altera_avalon_pio -- C:/altera_lite/15.1/quartus/../ip/altera/sopc_builder_ip/altera_avalon_pio/generate_rtl.pl --name=de2_115_WEB_Qsys_sma_in --dir=C:/Users/kamil/AppData/Local/Temp/alt6956_9213786085723018171.dir/0033_sma_in_gen/ --quartus_dir=C:/altera_lite/15.1/quartus --verilog --config=C:/Users/kamil/AppData/Local/Temp/alt6956_9213786085723018171.dir/0033_sma_in_gen//de2_115_WEB_Qsys_sma_in_component_configuration.pl  --do_build_sim=0  ]
Info: sma_in: Done RTL generation for module 'de2_115_WEB_Qsys_sma_in'
Info: sma_in: "de2_115_WEB_Qsys" instantiated altera_avalon_pio "sma_in"
Info: sma_out: Starting RTL generation for module 'de2_115_WEB_Qsys_sma_out'
Info: sma_out:   Generation command is [exec C:/altera_lite/15.1/quartus/bin64/perl/bin/perl.exe -I C:/altera_lite/15.1/quartus/bin64/perl/lib -I C:/altera_lite/15.1/quartus/sopc_builder/bin/europa -I C:/altera_lite/15.1/quartus/sopc_builder/bin/perl_lib -I C:/altera_lite/15.1/quartus/sopc_builder/bin -I C:/altera_lite/15.1/quartus/../ip/altera/sopc_builder_ip/common -I C:/altera_lite/15.1/quartus/../ip/altera/sopc_builder_ip/altera_avalon_pio -- C:/altera_lite/15.1/quartus/../ip/altera/sopc_builder_ip/altera_avalon_pio/generate_rtl.pl --name=de2_115_WEB_Qsys_sma_out --dir=C:/Users/kamil/AppData/Local/Temp/alt6956_9213786085723018171.dir/0034_sma_out_gen/ --quartus_dir=C:/altera_lite/15.1/quartus --verilog --config=C:/Users/kamil/AppData/Local/Temp/alt6956_9213786085723018171.dir/0034_sma_out_gen//de2_115_WEB_Qsys_sma_out_component_configuration.pl  --do_build_sim=0  ]
Info: sma_out: Done RTL generation for module 'de2_115_WEB_Qsys_sma_out'
Info: sma_out: "de2_115_WEB_Qsys" instantiated altera_avalon_pio "sma_out"
Info: sram: "de2_115_WEB_Qsys" instantiated TERASIC_SRAM "sram"
Info: sw: Starting RTL generation for module 'de2_115_WEB_Qsys_sw'
Info: sw:   Generation command is [exec C:/altera_lite/15.1/quartus/bin64/perl/bin/perl.exe -I C:/altera_lite/15.1/quartus/bin64/perl/lib -I C:/altera_lite/15.1/quartus/sopc_builder/bin/europa -I C:/altera_lite/15.1/quartus/sopc_builder/bin/perl_lib -I C:/altera_lite/15.1/quartus/sopc_builder/bin -I C:/altera_lite/15.1/quartus/../ip/altera/sopc_builder_ip/common -I C:/altera_lite/15.1/quartus/../ip/altera/sopc_builder_ip/altera_avalon_pio -- C:/altera_lite/15.1/quartus/../ip/altera/sopc_builder_ip/altera_avalon_pio/generate_rtl.pl --name=de2_115_WEB_Qsys_sw --dir=C:/Users/kamil/AppData/Local/Temp/alt6956_9213786085723018171.dir/0036_sw_gen/ --quartus_dir=C:/altera_lite/15.1/quartus --verilog --config=C:/Users/kamil/AppData/Local/Temp/alt6956_9213786085723018171.dir/0036_sw_gen//de2_115_WEB_Qsys_sw_component_configuration.pl  --do_build_sim=0  ]
Info: sw: Done RTL generation for module 'de2_115_WEB_Qsys_sw'
Info: sw: "de2_115_WEB_Qsys" instantiated altera_avalon_pio "sw"
Info: sysid: "de2_115_WEB_Qsys" instantiated altera_avalon_sysid_qsys "sysid"
Info: timer: Starting RTL generation for module 'de2_115_WEB_Qsys_timer'
Info: timer:   Generation command is [exec C:/altera_lite/15.1/quartus/bin64//perl/bin/perl.exe -I C:/altera_lite/15.1/quartus/bin64//perl/lib -I C:/altera_lite/15.1/quartus/sopc_builder/bin/europa -I C:/altera_lite/15.1/quartus/sopc_builder/bin/perl_lib -I C:/altera_lite/15.1/quartus/sopc_builder/bin -I C:/altera_lite/15.1/quartus/../ip/altera/sopc_builder_ip/common -I C:/altera_lite/15.1/quartus/../ip/altera/sopc_builder_ip/altera_avalon_timer -- C:/altera_lite/15.1/quartus/../ip/altera/sopc_builder_ip/altera_avalon_timer/generate_rtl.pl --name=de2_115_WEB_Qsys_timer --dir=C:/Users/kamil/AppData/Local/Temp/alt6956_9213786085723018171.dir/0038_timer_gen/ --quartus_dir=C:/altera_lite/15.1/quartus --verilog --config=C:/Users/kamil/AppData/Local/Temp/alt6956_9213786085723018171.dir/0038_timer_gen//de2_115_WEB_Qsys_timer_component_configuration.pl  --do_build_sim=0  ]
Info: timer: Done RTL generation for module 'de2_115_WEB_Qsys_timer'
Info: timer: "de2_115_WEB_Qsys" instantiated altera_avalon_timer "timer"
Info: tri_state_bridge_flash_bridge_0: "de2_115_WEB_Qsys" instantiated altera_tristate_conduit_bridge "tri_state_bridge_flash_bridge_0"
Info: tri_state_flash_bridge_pinSharer_0: "de2_115_WEB_Qsys" instantiated altera_tristate_conduit_pin_sharer "tri_state_flash_bridge_pinSharer_0"
Info: tse_mac: "de2_115_WEB_Qsys" instantiated altera_eth_tse "tse_mac"
Info: cpu_custom_instruction_master_translator: "de2_115_WEB_Qsys" instantiated altera_customins_master_translator "cpu_custom_instruction_master_translator"
Info: cpu_custom_instruction_master_multi_xconnect: "de2_115_WEB_Qsys" instantiated altera_customins_xconnect "cpu_custom_instruction_master_multi_xconnect"
Info: cpu_custom_instruction_master_multi_slave_translator0: "de2_115_WEB_Qsys" instantiated altera_customins_slave_translator "cpu_custom_instruction_master_multi_slave_translator0"
Info: avalon_st_adapter: Inserting error_adapter: error_adapter_0
Info: avalon_st_adapter_001: Inserting error_adapter: error_adapter_0
Info: avalon_st_adapter_002: Inserting error_adapter: error_adapter_0
Info: avalon_st_adapter_003: Inserting error_adapter: error_adapter_0
Info: avalon_st_adapter_004: Inserting error_adapter: error_adapter_0
Info: avalon_st_adapter_005: Inserting error_adapter: error_adapter_0
Info: avalon_st_adapter_006: Inserting error_adapter: error_adapter_0
Info: avalon_st_adapter_007: Inserting error_adapter: error_adapter_0
Info: avalon_st_adapter_008: Inserting error_adapter: error_adapter_0
Info: avalon_st_adapter_009: Inserting error_adapter: error_adapter_0
Info: avalon_st_adapter_010: Inserting error_adapter: error_adapter_0
Info: avalon_st_adapter_011: Inserting error_adapter: error_adapter_0
Info: avalon_st_adapter_012: Inserting error_adapter: error_adapter_0
Info: avalon_st_adapter_013: Inserting error_adapter: error_adapter_0
Info: avalon_st_adapter_014: Inserting error_adapter: error_adapter_0
Info: avalon_st_adapter_015: Inserting error_adapter: error_adapter_0
Info: avalon_st_adapter_016: Inserting error_adapter: error_adapter_0
Info: mm_interconnect_0: "de2_115_WEB_Qsys" instantiated altera_mm_interconnect "mm_interconnect_0"
Info: avalon_st_adapter: Inserting error_adapter: error_adapter_0
Info: avalon_st_adapter_001: Inserting error_adapter: error_adapter_0
Info: avalon_st_adapter_002: Inserting error_adapter: error_adapter_0
Info: avalon_st_adapter_003: Inserting error_adapter: error_adapter_0
Info: avalon_st_adapter_004: Inserting error_adapter: error_adapter_0
Info: avalon_st_adapter_005: Inserting error_adapter: error_adapter_0
Info: avalon_st_adapter_006: Inserting error_adapter: error_adapter_0
Info: avalon_st_adapter_007: Inserting error_adapter: error_adapter_0
Info: avalon_st_adapter_008: Inserting error_adapter: error_adapter_0
Info: avalon_st_adapter_009: Inserting error_adapter: error_adapter_0
Info: avalon_st_adapter_010: Inserting error_adapter: error_adapter_0
Info: avalon_st_adapter_011: Inserting error_adapter: error_adapter_0
Info: avalon_st_adapter_012: Inserting error_adapter: error_adapter_0
Info: avalon_st_adapter_013: Inserting error_adapter: error_adapter_0
Info: avalon_st_adapter_014: Inserting error_adapter: error_adapter_0
Info: avalon_st_adapter_015: Inserting error_adapter: error_adapter_0
Info: avalon_st_adapter_016: Inserting error_adapter: error_adapter_0
Info: avalon_st_adapter_017: Inserting error_adapter: error_adapter_0
Info: mm_interconnect_1: "de2_115_WEB_Qsys" instantiated altera_mm_interconnect "mm_interconnect_1"
Info: irq_mapper: "de2_115_WEB_Qsys" instantiated altera_irq_mapper "irq_mapper"
Info: irq_synchronizer: "de2_115_WEB_Qsys" instantiated altera_irq_clock_crosser "irq_synchronizer"
Info: avalon_st_adapter: "de2_115_WEB_Qsys" instantiated altera_avalon_st_adapter "avalon_st_adapter"
Info: rst_controller: "de2_115_WEB_Qsys" instantiated altera_reset_controller "rst_controller"
Info: tdt: "cfi_flash" instantiated altera_tristate_controller_translator "tdt"
Info: slave_translator: "cfi_flash" instantiated altera_merlin_slave_translator "slave_translator"
Info: tda: "cfi_flash" instantiated altera_tristate_controller_aggregator "tda"
Info: cpu: Starting RTL generation for module 'de2_115_WEB_Qsys_cpu_cpu'
Info: cpu:   Generation command is [exec C:/altera_lite/15.1/quartus/bin64//eperlcmd.exe -I C:/altera_lite/15.1/quartus/bin64//perl/lib -I C:/altera_lite/15.1/quartus/sopc_builder/bin/europa -I C:/altera_lite/15.1/quartus/sopc_builder/bin/perl_lib -I C:/altera_lite/15.1/quartus/sopc_builder/bin -I C:/altera_lite/15.1/quartus/../ip/altera/nios2_ip/altera_nios2_gen2/cpu_lib -I C:/altera_lite/15.1/quartus/../ip/altera/nios2_ip/altera_nios2_gen2/nios_lib -I C:/altera_lite/15.1/quartus/../ip/altera/nios2_ip/altera_nios2_gen2 -I C:/altera_lite/15.1/quartus/../ip/altera/nios2_ip/altera_nios2_gen2 -- C:/altera_lite/15.1/quartus/../ip/altera/nios2_ip/altera_nios2_gen2/generate_rtl.epl --name=de2_115_WEB_Qsys_cpu_cpu --dir=C:/Users/kamil/AppData/Local/Temp/alt6956_9213786085723018171.dir/0045_cpu_gen/ --quartus_bindir=C:/altera_lite/15.1/quartus/bin64/ --verilog --config=C:/Users/kamil/AppData/Local/Temp/alt6956_9213786085723018171.dir/0045_cpu_gen//de2_115_WEB_Qsys_cpu_cpu_processor_configuration.pl  --do_build_sim=0  ]
Info: cpu: # 2016.06.04 02:57:56 (*) Starting Nios II generation
Info: cpu: # 2016.06.04 02:57:56 (*)   Checking for plaintext license.
Info: cpu: # 2016.06.04 02:58:02 (*)   Couldn't query license setup in Quartus directory C:/altera_lite/15.1/quartus/bin64/
Info: cpu: # 2016.06.04 02:58:02 (*)   Defaulting to contents of LM_LICENSE_FILE environment variable
Info: cpu: # 2016.06.04 02:58:02 (*)   LM_LICENSE_FILE environment variable is empty
Info: cpu: # 2016.06.04 02:58:02 (*)   Plaintext license not found.
Info: cpu: # 2016.06.04 02:58:02 (*)   Checking for encrypted license (non-evaluation).
Info: cpu: # 2016.06.04 02:58:07 (*)   Couldn't query license setup in Quartus directory C:/altera_lite/15.1/quartus/bin64/
Info: cpu: # 2016.06.04 02:58:07 (*)   Defaulting to contents of LM_LICENSE_FILE environment variable
Info: cpu: # 2016.06.04 02:58:07 (*)   LM_LICENSE_FILE environment variable is empty
Info: cpu: # 2016.06.04 02:58:07 (*)   Encrypted license not found.  Defaulting to OCP evaluation license (produces a time-limited SOF)
Info: cpu: # 2016.06.04 02:58:07 (*)   Elaborating CPU configuration settings
Info: cpu: # 2016.06.04 02:58:07 (*)   Creating all objects for CPU
Info: cpu: # 2016.06.04 02:58:07 (*)     Testbench
Info: cpu: # 2016.06.04 02:58:08 (*)     Instruction decoding
Info: cpu: # 2016.06.04 02:58:08 (*)       Instruction fields
Info: cpu: # 2016.06.04 02:58:08 (*)       Instruction decodes
Info: cpu: # 2016.06.04 02:58:09 (*)       Signals for RTL simulation waveforms
Info: cpu: # 2016.06.04 02:58:09 (*)       Instruction controls
Info: cpu: # 2016.06.04 02:58:09 (*)     Pipeline frontend
Info: cpu: # 2016.06.04 02:58:09 (*)     Pipeline backend
Info: cpu: # 2016.06.04 02:58:13 (*)   Generating RTL from CPU objects
Info: cpu: # 2016.06.04 02:58:17 (*)   Creating encrypted RTL
Info: cpu: # 2016.06.04 02:58:18 (*) Done Nios II generation
Info: cpu: Done RTL generation for module 'de2_115_WEB_Qsys_cpu_cpu'
Info: cpu: "cpu" instantiated altera_nios2_gen2_unit "cpu"
Info: pin_sharer: "tri_state_flash_bridge_pinSharer_0" instantiated altera_tristate_conduit_pin_sharer_core "pin_sharer"
Info: arbiter: "tri_state_flash_bridge_pinSharer_0" instantiated altera_merlin_std_arbitrator "arbiter"
Info: i_tse_mac: "tse_mac" instantiated altera_eth_tse_mac "i_tse_mac"
Info: cpu_data_master_translator: "mm_interconnect_0" instantiated altera_merlin_master_translator "cpu_data_master_translator"
Info: cpu_data_master_agent: "mm_interconnect_0" instantiated altera_merlin_master_agent "cpu_data_master_agent"
Info: jtag_uart_avalon_jtag_slave_agent: "mm_interconnect_0" instantiated altera_merlin_slave_agent "jtag_uart_avalon_jtag_slave_agent"
Info: jtag_uart_avalon_jtag_slave_agent_rsp_fifo: "mm_interconnect_0" instantiated altera_avalon_sc_fifo "jtag_uart_avalon_jtag_slave_agent_rsp_fifo"
Info: router: "mm_interconnect_0" instantiated altera_merlin_router "router"
Info: router_001: "mm_interconnect_0" instantiated altera_merlin_router "router_001"
Info: router_002: "mm_interconnect_0" instantiated altera_merlin_router "router_002"
Info: router_004: "mm_interconnect_0" instantiated altera_merlin_router "router_004"
Info: router_008: "mm_interconnect_0" instantiated altera_merlin_router "router_008"
Info: router_010: "mm_interconnect_0" instantiated altera_merlin_router "router_010"
Info: router_015: "mm_interconnect_0" instantiated altera_merlin_router "router_015"
Info: router_022: "mm_interconnect_0" instantiated altera_merlin_router "router_022"
Info: router_023: "mm_interconnect_0" instantiated altera_merlin_router "router_023"
Info: router_024: "mm_interconnect_0" instantiated altera_merlin_router "router_024"
Info: cpu_data_master_limiter: "mm_interconnect_0" instantiated altera_merlin_traffic_limiter "cpu_data_master_limiter"
Info: Reusing file C:/Users/kamil/Desktop/RAINBOW/DE2_115_WEB_SERVER_RGMII_ENET0/de2_115_WEB_Qsys/synthesis/submodules/altera_avalon_sc_fifo.v
Info: sram_avalon_slave_burst_adapter: "mm_interconnect_0" instantiated altera_merlin_burst_adapter "sram_avalon_slave_burst_adapter"
Info: Reusing file C:/Users/kamil/Desktop/RAINBOW/DE2_115_WEB_SERVER_RGMII_ENET0/de2_115_WEB_Qsys/synthesis/submodules/altera_avalon_st_pipeline_base.v
Info: cmd_demux: "mm_interconnect_0" instantiated altera_merlin_demultiplexer "cmd_demux"
Info: cmd_demux_001: "mm_interconnect_0" instantiated altera_merlin_demultiplexer "cmd_demux_001"
Info: cmd_demux_002: "mm_interconnect_0" instantiated altera_merlin_demultiplexer "cmd_demux_002"
Info: cmd_mux: "mm_interconnect_0" instantiated altera_merlin_multiplexer "cmd_mux"
Info: cmd_mux_002: "mm_interconnect_0" instantiated altera_merlin_multiplexer "cmd_mux_002"
Info: Reusing file C:/Users/kamil/Desktop/RAINBOW/DE2_115_WEB_SERVER_RGMII_ENET0/de2_115_WEB_Qsys/synthesis/submodules/altera_merlin_arbitrator.sv
Info: cmd_mux_014: "mm_interconnect_0" instantiated altera_merlin_multiplexer "cmd_mux_014"
Info: Reusing file C:/Users/kamil/Desktop/RAINBOW/DE2_115_WEB_SERVER_RGMII_ENET0/de2_115_WEB_Qsys/synthesis/submodules/altera_merlin_arbitrator.sv
Info: cmd_mux_015: "mm_interconnect_0" instantiated altera_merlin_multiplexer "cmd_mux_015"
Info: Reusing file C:/Users/kamil/Desktop/RAINBOW/DE2_115_WEB_SERVER_RGMII_ENET0/de2_115_WEB_Qsys/synthesis/submodules/altera_merlin_arbitrator.sv
Info: rsp_demux_002: "mm_interconnect_0" instantiated altera_merlin_demultiplexer "rsp_demux_002"
Info: rsp_demux_009: "mm_interconnect_0" instantiated altera_merlin_demultiplexer "rsp_demux_009"
Info: rsp_demux_014: "mm_interconnect_0" instantiated altera_merlin_demultiplexer "rsp_demux_014"
Info: rsp_demux_015: "mm_interconnect_0" instantiated altera_merlin_demultiplexer "rsp_demux_015"
Info: rsp_mux: "mm_interconnect_0" instantiated altera_merlin_multiplexer "rsp_mux"
Info: Reusing file C:/Users/kamil/Desktop/RAINBOW/DE2_115_WEB_SERVER_RGMII_ENET0/de2_115_WEB_Qsys/synthesis/submodules/altera_merlin_arbitrator.sv
Info: rsp_mux_001: "mm_interconnect_0" instantiated altera_merlin_multiplexer "rsp_mux_001"
Info: Reusing file C:/Users/kamil/Desktop/RAINBOW/DE2_115_WEB_SERVER_RGMII_ENET0/de2_115_WEB_Qsys/synthesis/submodules/altera_merlin_arbitrator.sv
Info: rsp_mux_002: "mm_interconnect_0" instantiated altera_merlin_multiplexer "rsp_mux_002"
Info: Reusing file C:/Users/kamil/Desktop/RAINBOW/DE2_115_WEB_SERVER_RGMII_ENET0/de2_115_WEB_Qsys/synthesis/submodules/altera_merlin_arbitrator.sv
Info: sram_avalon_slave_rsp_width_adapter: "mm_interconnect_0" instantiated altera_merlin_width_adapter "sram_avalon_slave_rsp_width_adapter"
Info: Reusing file C:/Users/kamil/Desktop/RAINBOW/DE2_115_WEB_SERVER_RGMII_ENET0/de2_115_WEB_Qsys/synthesis/submodules/altera_merlin_address_alignment.sv
Info: Reusing file C:/Users/kamil/Desktop/RAINBOW/DE2_115_WEB_SERVER_RGMII_ENET0/de2_115_WEB_Qsys/synthesis/submodules/altera_merlin_burst_uncompressor.sv
Info: crosser: "mm_interconnect_0" instantiated altera_avalon_st_handshake_clock_crosser "crosser"
Info: Reusing file C:/Users/kamil/Desktop/RAINBOW/DE2_115_WEB_SERVER_RGMII_ENET0/de2_115_WEB_Qsys/synthesis/submodules/altera_avalon_st_pipeline_base.v
Info: Reusing file C:/Users/kamil/Desktop/RAINBOW/DE2_115_WEB_SERVER_RGMII_ENET0/de2_115_WEB_Qsys/synthesis/submodules/altera_std_synchronizer_nocut.v
Info: avalon_st_adapter: "mm_interconnect_0" instantiated altera_avalon_st_adapter "avalon_st_adapter"
Info: avalon_st_adapter_002: "mm_interconnect_0" instantiated altera_avalon_st_adapter "avalon_st_adapter_002"
Info: avalon_st_adapter_016: "mm_interconnect_0" instantiated altera_avalon_st_adapter "avalon_st_adapter_016"
Info: router: "mm_interconnect_1" instantiated altera_merlin_router "router"
Info: router_001: "mm_interconnect_1" instantiated altera_merlin_router "router_001"
Info: cmd_demux: "mm_interconnect_1" instantiated altera_merlin_demultiplexer "cmd_demux"
Info: cmd_mux: "mm_interconnect_1" instantiated altera_merlin_multiplexer "cmd_mux"
Info: Reusing file C:/Users/kamil/Desktop/RAINBOW/DE2_115_WEB_SERVER_RGMII_ENET0/de2_115_WEB_Qsys/synthesis/submodules/altera_merlin_arbitrator.sv
Info: rsp_demux: "mm_interconnect_1" instantiated altera_merlin_demultiplexer "rsp_demux"
Info: rsp_mux: "mm_interconnect_1" instantiated altera_merlin_multiplexer "rsp_mux"
Info: Reusing file C:/Users/kamil/Desktop/RAINBOW/DE2_115_WEB_SERVER_RGMII_ENET0/de2_115_WEB_Qsys/synthesis/submodules/altera_merlin_arbitrator.sv
Info: timing_adapter_0: "avalon_st_adapter" instantiated timing_adapter "timing_adapter_0"
Info: error_adapter_0: "avalon_st_adapter" instantiated error_adapter "error_adapter_0"
Info: error_adapter_0: "avalon_st_adapter_002" instantiated error_adapter "error_adapter_0"
Info: error_adapter_0: "avalon_st_adapter_016" instantiated error_adapter "error_adapter_0"
Info: de2_115_WEB_Qsys: Done "de2_115_WEB_Qsys" with 94 modules, 247 files
Info: qsys-generate succeeded.
Info: Finished: Create HDL design files for synthesis
