Info: Start Nativelink Simulation process

========= EDA Simulation Settings =====================

Sim Mode              :  RTL
Family                :  cycloneive
Quartus root          :  c:/altera_lite/15.1/quartus/bin64/
Quartus sim root      :  c:/altera_lite/15.1/quartus/eda/sim_lib
Simulation Tool       :  modelsim-altera
Simulation Language   :  verilog
Simulation Mode       :  GUI
Sim Output File       :  
Sim SDF file          :  
Sim dir               :  simulation\modelsim

=======================================================

Info: Starting NativeLink simulation with ModelSim-Altera software
Sourced NativeLink script c:/altera_lite/15.1/quartus/common/tcl/internal/nativelink/modelsim.tcl
Warning: File DE2_115_WEB_SERVER_run_msim_rtl_verilog.do already exists - backing up current file as DE2_115_WEB_SERVER_run_msim_rtl_verilog.do.bak9
Info: Spawning ModelSim-Altera Simulation software 
