Assembler report for DE2_115_WEB_SERVER
Sun Jun 05 15:58:12 2016
Quartus Prime Version 15.1.0 Build 185 10/21/2015 SJ Lite Edition


---------------------
; Table of Contents ;
---------------------
  1. Legal Notice
  2. Assembler Summary
  3. Assembler Settings
  4. Assembler Encrypted IP Cores Summary
  5. Assembler Generated Files
  6. Assembler Device Options: C:/Users/kamil/Desktop/RAINBOW/DE2_115_WEB_SERVER_RGMII_ENET0/DE2_115_WEB_SERVER_time_limited.sof
  7. Assembler Messages



----------------
; Legal Notice ;
----------------
Copyright (C) 1991-2015 Altera Corporation. All rights reserved.
Your use of Altera Corporation's design tools, logic functions 
and other software and tools, and its AMPP partner logic 
functions, and any output files from any of the foregoing 
(including device programming or simulation files), and any 
associated documentation or information are expressly subject 
to the terms and conditions of the Altera Program License 
Subscription Agreement, the Altera Quartus Prime License Agreement,
the Altera MegaCore Function License Agreement, or other 
applicable license agreement, including, without limitation, 
that your use is for the sole purpose of programming logic 
devices manufactured by Altera and sold by Altera or its 
authorized distributors.  Please refer to the applicable 
agreement for further details.



+---------------------------------------------------------------+
; Assembler Summary                                             ;
+-----------------------+---------------------------------------+
; Assembler Status      ; Successful - Sun Jun 05 15:58:12 2016 ;
; Revision Name         ; DE2_115_WEB_SERVER                    ;
; Top-level Entity Name ; DE2_115_WEB_SERVER                    ;
; Family                ; Cyclone IV E                          ;
; Device                ; EP4CE115F29C7                         ;
+-----------------------+---------------------------------------+


+----------------------------------+
; Assembler Settings               ;
+--------+---------+---------------+
; Option ; Setting ; Default Value ;
+--------+---------+---------------+


+------------------------------------------------------------+
; Assembler Encrypted IP Cores Summary                       ;
+--------+-----------------------------------+---------------+
; Vendor ; IP Core Name                      ; License Type  ;
+--------+-----------------------------------+---------------+
; Altera ; Nios II Processor (6AF7 00A2)     ; OpenCore Plus ;
; Altera ; Triple-Speed Ethernet (6AF7 00BD) ; OpenCore Plus ;
; Altera ; Signal Tap (6AF7 BCE1)            ; Licensed      ;
; Altera ; Signal Tap (6AF7 BCEC)            ; Licensed      ;
+--------+-----------------------------------+---------------+


+---------------------------------------------------------------------------------------------------+
; Assembler Generated Files                                                                         ;
+---------------------------------------------------------------------------------------------------+
; File Name                                                                                         ;
+---------------------------------------------------------------------------------------------------+
; C:/Users/kamil/Desktop/RAINBOW/DE2_115_WEB_SERVER_RGMII_ENET0/DE2_115_WEB_SERVER_time_limited.sof ;
+---------------------------------------------------------------------------------------------------+


+-----------------------------------------------------------------------------------------------------------------------------+
; Assembler Device Options: C:/Users/kamil/Desktop/RAINBOW/DE2_115_WEB_SERVER_RGMII_ENET0/DE2_115_WEB_SERVER_time_limited.sof ;
+----------------+------------------------------------------------------------------------------------------------------------+
; Option         ; Setting                                                                                                    ;
+----------------+------------------------------------------------------------------------------------------------------------+
; Device         ; EP4CE115F29C7                                                                                              ;
; JTAG usercode  ; 0xFFFFFFFF                                                                                                 ;
; Checksum       ; 0x010363AD                                                                                                 ;
+----------------+------------------------------------------------------------------------------------------------------------+


+--------------------+
; Assembler Messages ;
+--------------------+
Info: *******************************************************************
Info: Running Quartus Prime Assembler
    Info: Version 15.1.0 Build 185 10/21/2015 SJ Lite Edition
    Info: Processing started: Sun Jun 05 15:58:01 2016
Info: Command: quartus_asm --read_settings_files=off --write_settings_files=off DE2_115_WEB_SERVER -c DE2_115_WEB_SERVER
Info (115031): Writing out detailed assembly data for power analysis
Info (115030): Assembler is generating device programming files
Info (115017): Design contains a time-limited core -- only a single, time-limited programming file can be generated
Warning (210042): Can't convert time-limited SOF into POF, HEX File, TTF, or RBF
Info: Quartus Prime Assembler was successful. 0 errors, 1 warning
    Info: Peak virtual memory: 830 megabytes
    Info: Processing ended: Sun Jun 05 15:58:13 2016
    Info: Elapsed time: 00:00:12
    Info: Total CPU time (on all processors): 00:00:11


